\relax 
\AC@reset@newl@bel
\abx@aux@refcontext{none/global//global/global}
\abx@aux@cite{Hamer2008}
\abx@aux@segm{0}{0}{Hamer2008}
\abx@aux@category{inbib}{Hamer2008}
\abx@aux@cite{DoH2010}
\abx@aux@segm{0}{0}{DoH2010}
\abx@aux@category{inbib}{DoH2010}
\abx@aux@cite{Aldred2018}
\abx@aux@segm{0}{0}{Aldred2018}
\abx@aux@category{inbib}{Aldred2018}
\newacro{ABM}[ABM]{\emph  {agent-based model}}
\newacro{GUI}[GUI]{\emph  {graphical user interface}}
\newacro{IA}[IA]{\emph  {intervention agent}}
\@writefile{toc}{\boolfalse {citerequest}\boolfalse {citetracker}\boolfalse {pagetracker}\boolfalse {backtracker}\relax }
\@writefile{lof}{\boolfalse {citerequest}\boolfalse {citetracker}\boolfalse {pagetracker}\boolfalse {backtracker}\relax }
\@writefile{lot}{\boolfalse {citerequest}\boolfalse {citetracker}\boolfalse {pagetracker}\boolfalse {backtracker}\relax }
\@writefile{toc}{\defcounter {refsection}{0}\relax }\@writefile{toc}{\contentsline {section}{\numberline {1}Project Motivation}{1}}
\AC@undonewlabel{acro:ABM}
\newlabel{acro:ABM}{{1}{1}}
\acronymused{ABM}
\@writefile{toc}{\defcounter {refsection}{0}\relax }\@writefile{toc}{\contentsline {section}{\numberline {2}Aims and Objectives}{1}}
\acronymused{ABM}
\abx@aux@cite{Archbold2018}
\abx@aux@segm{0}{0}{Archbold2018}
\abx@aux@cite{Marchant2015}
\abx@aux@segm{0}{0}{Marchant2015}
\AC@undonewlabel{acro:GUI}
\newlabel{acro:GUI}{{4a}{2}}
\acronymused{GUI}
\@writefile{toc}{\defcounter {refsection}{0}\relax }\@writefile{toc}{\contentsline {section}{\numberline {3}Existing Literature}{2}}
\AC@undonewlabel{acro:IA}
\newlabel{acro:IA}{{3}{2}}
\acronymused{IA}
\abx@aux@cite{Marchant2014}
\abx@aux@segm{0}{0}{Marchant2014}
\abx@aux@cite{Mueller2013}
\abx@aux@segm{0}{0}{Mueller2013}
\abx@aux@segm{0}{0}{Aldred2018}
\abx@aux@cite{Davidsson2005}
\abx@aux@segm{0}{0}{Davidsson2005}
\acronymused{IA}
\acronymused{IA}
\acronymused{IA}
\acronymused{ABM}
\@writefile{toc}{\defcounter {refsection}{0}\relax }\@writefile{toc}{\contentsline {section}{\numberline {4}Software Platform}{4}}
\acronymused{ABM}
\acronymused{GUI}
\acronymused{GUI}
\acronymused{GUI}
\@writefile{toc}{\defcounter {refsection}{0}\relax }\@writefile{toc}{\contentsline {section}{\numberline {5}Plan of Progress}{4}}
\@writefile{toc}{\defcounter {refsection}{0}\relax }\@writefile{toc}{\contentsline {subsection}{\numberline {5.1}Gantt chart}{5}}
\abx@aux@refcontextdefaultsdone
\abx@aux@defaultrefcontext{0}{Hamer2008}{none/global//global/global}
\abx@aux@defaultrefcontext{0}{DoH2010}{none/global//global/global}
\abx@aux@defaultrefcontext{0}{Aldred2018}{none/global//global/global}
\@writefile{toc}{\defcounter {refsection}{0}\relax }\@writefile{toc}{\contentsline {subsection}{\numberline {5.2}Deliverables}{7}}
